mote id, sample count, temperature, humidity, TSR, PAR, voltage, timestamp
21,15356,27.93,32.69,425.9,2384.03,4.05,2013-08-22 12:03:32.380671
7,15356,26.79,33.3,39.92,150.15,4.05,2013-08-22 12:03:32.407149
15,15356,30.72,28.27,451.17,3713.38,4.03,2013-08-22 12:03:32.494068
28,15352,27.71,32.78,420.04,1706.54,4,2013-08-22 12:03:32.575008
30,15356,25.67,35.47,22.34,91.55,4.08,2013-08-22 12:03:32.595889
9,15356,27,32.86,34.42,117.19,4,2013-08-22 12:03:32.719029
99,15379,29.04,30.73,52.37,307.62,4.08,2013-08-22 12:03:32.765229
3,15356,28.37,31.49,68.12,234.38,4.06,2013-08-22 12:03:32.826331
29,15357,28.05,31.57,448.61,2629.39,4.06,2013-08-22 12:03:32.853027
6,15354,27.15,32.87,75.81,208.74,3.99,2013-08-22 12:03:32.979051
23,15355,29.76,29.6,466.92,4167.48,4.01,2013-08-22 12:03:33.329074
17,15355,28.01,31.07,468.75,4167.48,4,2013-08-22 12:03:33.39595
18,15355,28.08,30.36,451.54,3618.16,3.97,2013-08-22 12:03:33.579943
35,15355,25.76,35.16,49.07,281.98,4.02,2013-08-22 12:03:33.604979
14,15355,28.04,32.99,436.52,2248.54,4.02,2013-08-22 12:03:33.66033
25,15356,24.3,37.68,0.73,3.66,4.04,2013-08-22 12:03:33.753244
12,15356,27.18,33.69,444.21,2691.65,4.07,2013-08-22 12:03:34.095086
10,15356,25.79,35.51,220.46,765.38,4,2013-08-22 12:03:34.201077
24,15356,29.07,31.02,456.67,3911.13,4,2013-08-22 12:03:34.405137
31,15358,25.59,35.77,27.83,205.08,4,2013-08-22 12:03:34.422088
38,15358,25.48,34.96,110.6,1032.71,4.09,2013-08-22 12:03:34.595033
37,15358,25.86,34.72,195.92,780.03,4.04,2013-08-22 12:03:34.763119
11,15356,27.81,32.47,126.71,596.92,3.97,2013-08-22 12:03:34.850151
2,15356,26.97,33.25,64.09,212.4,4.04,2013-08-22 12:03:34.926075
19,15356,28.23,31.94,463.26,3947.75,4.06,2013-08-22 12:03:34.994052
4,15356,27.33,33,172.12,549.32,4.07,2013-08-22 12:03:35.369064
33,15357,25.98,34.83,83.13,538.33,4.06,2013-08-22 12:03:35.642951
32,15357,25.27,36.4,132.93,1300.05,3.96,2013-08-22 12:03:35.662057
20,15357,27.76,32.4,439.82,3354.49,3.96,2013-08-22 12:03:35.726027
22,15353,25.48,36.04,1.1,7.32,4.02,2013-08-22 12:03:36.052072
1,15356,27.55,32.52,340.58,1252.44,4.09,2013-08-22 12:03:36.136061
16,15355,28.78,30.71,468.38,4028.32,4.09,2013-08-22 12:03:36.219041
13,15354,28.5,32.07,450.81,3504.64,4.03,2013-08-22 12:03:36.583074
8,15356,27.61,30.75,31.13,109.86,3.98,2013-08-22 12:03:36.601078
27,15353,27.27,33.9,433.96,2222.9,3.95,2013-08-22 12:03:36.642975
34,15358,26.84,33.02,0.73,7.32,4.03,2013-08-22 12:03:36.684082
36,15358,25.85,35.24,88.62,498.05,4.07,2013-08-22 12:03:36.861032
5,15357,27.79,31.9,49.8,150.15,4.02,2013-08-22 12:03:37.12009
21,15357,27.95,32.63,425.9,2369.38,4.04,2013-08-22 12:03:37.336059
